/BTagMu/mmarcheg-Run2018A-UL2018_MiniAODv2-v1_PFNanoAOD-690f1d1c4f2456484a2616002f2d2b6d/USER
/BTagMu/mmarcheg-Run2018B-UL2018_MiniAODv2-v1_PFNanoAOD-690f1d1c4f2456484a2616002f2d2b6d/USER
/BTagMu/mmarcheg-Run2018C-UL2018_MiniAODv2-v1_PFNanoAOD-690f1d1c4f2456484a2616002f2d2b6d/USER
/BTagMu/mmarcheg-Run2018D-UL2018_MiniAODv2-v1_PFNanoAOD-690f1d1c4f2456484a2616002f2d2b6d/USER
/QCD_Pt-170to300_MuEnrichedPt5_TuneCP5_13TeV_pythia8/kadatta-RunIISummer19UL18PFNanoAOD-106X_upgrade2018_realistic_v16_L1v1-v1-6b2afb6a4ef31ee48bbd9c5b173a9b25/USER
/QCD_Pt-300to470_MuEnrichedPt5_TuneCP5_13TeV_pythia8/kadatta-RunIISummer19UL18v1-106X_upgrade2018_realistic_v16_L1v1-v1-6b2afb6a4ef31ee48bbd9c5b173a9b25/USER
/QCD_Pt-470to600_MuEnrichedPt5_TuneCP5_13TeV_pythia8/kadatta-RunIISummer19UL18v1-106X_upgrade2018_realistic_v16_L1v1-v1-6b2afb6a4ef31ee48bbd9c5b173a9b25/USER
/QCD_Pt-600to800_MuEnrichedPt5_TuneCP5_13TeV_pythia8/kadatta-RunIISummer19UL18v1-106X_upgrade2018_realistic_v16_L1v1-v1-6b2afb6a4ef31ee48bbd9c5b173a9b25/USER
/QCD_Pt-800to1000_MuEnrichedPt5_TuneCP5_13TeV_pythia8/kadatta-RunIISummer19UL18v1-106X_upgrade2018_realistic_v16_L1v1-v1-6b2afb6a4ef31ee48bbd9c5b173a9b25/USER
/QCD_Pt-1000toInf_MuEnrichedPt5_TuneCP5_13TeV_pythia8/kadatta-RunIISummer19UL18v1-106X_upgrade2018_realistic_v16_L1v1-v1-6b2afb6a4ef31ee48bbd9c5b173a9b25/USER